'id';'device';'name';'password'
'1';'Android';'Finn Olaf';'ZrvaArhrfCJ2023'
'2';'iPhone';'Torben Gottlieb';'HygentrurvzrfCJ2021'
'3';'iPhone';'Ulli Noah';'FhcreTrurvz1234!'
'4';'Android';'Christoph Gunther';'ReeägfgQhruavpug!'
'5';'Android';'Ferdinand Ottmar';'UnunFhpuznyfpubrajrvgre!'
'6';'iPhone';'Manuel Utz';'Nyyrfvfgfvaaybf'
'7';'iPhone';'Arend Thomas';'VpuiretrffrzrvaCnffjbeg'
'8';'iPhone';'Rolf Dietmar';'FrfnzössarQvpu'
'9';'Android';'Hagen Leberecht';'JreoenhpugfpubarvaCnffjbeg'
'10';'iPhone';'Hauke Rüdiger';'Ovatrurvz'
'11';'Android';'Hubertus Herbert';'grfg'
'12';'iPhone';'Wiegand Jockel';'1234'
'13';'iPhone';'Gottlob Sebastian';'UnyybVpuovaRvaCnffjbeg'
'14';'Android';'Titus Reinhard';'cnffjbeg'
'15';'iPhone';'Levi Jörg';'28.08.2023'
'16';'iPhone';'Hans Günther';'Ybeqv'
'17';'Android';'Didi Hugo';'AbpurvaarhrfCnffjbeg'
'18';'iPhone';'Eduard Ottokar';'XrvarYhfg'
